bin/2bit_shift_REG_hier_flat.vcd
$date
  17:21:25 22/09/2016
$end
$version
  Alexander Lapin Petri Nets Logic Simulator.
$end
$comment
  Any comment text.
$end
$timescale 1ns $end
$scope module logic $end
$var wire 1 ! D $end
$var wire 1 " C $end
$var wire 1 # _d1_net0 $end
$var wire 1 $ _d1_net1 $end
$var wire 1 % _d1_net2 $end
$var wire 1 & _d1_net3 $end
$var wire 1 ' _d1_net4 $end
$var wire 1 ( _d1_net5 $end
$var wire 1 ) _d1_net6 $end
$var wire 1 * Q1 $end
$var wire 1 + _nQ1 $end
$var wire 1 , _d2_net0 $end
$var wire 1 - _d2_net1 $end
$var wire 1 . _d2_net2 $end
$var wire 1 / _d2_net3 $end
$var wire 1 0 _d2_net4 $end
$var wire 1 1 _d2_net5 $end
$var wire 1 2 _d2_net6 $end
$var wire 1 3 Q2 $end
$var wire 1 4 _nQ2 $end
$upscope $end
$enddefinitions $end
$dumpvars
x!
x"
x#
x$
x%
x&
x'
x(
x)
x*
x+
x,
x-
x.
x/
x0
x1
x2
x3
x4
$end
#0
0!
0"
1#
0$
1%
1&
0'
0(
0)
x*
x+
x,
x-
x.
x/
x0
01
02
x3
x4
#1
0!
0"
1#
0$
1%
1&
0'
0(
0)
x*
x+
x,
x-
x.
x/
x0
01
02
x3
x4
#2
0!
0"
1#
0$
1%
1&
0'
0(
0)
x*
x+
x,
x-
x.
x/
x0
01
02
x3
x4
#3
0!
0"
1#
0$
1%
1&
0'
0(
0)
x*
x+
x,
x-
x.
x/
x0
01
02
x3
x4
#4
0!
0"
1#
0$
1%
1&
0'
0(
0)
x*
x+
x,
x-
x.
x/
x0
01
02
x3
x4
#5
0!
0"
1#
0$
1%
1&
0'
0(
0)
x*
x+
x,
x-
x.
x/
x0
01
02
x3
x4
#6
0!
0"
1#
0$
1%
1&
0'
0(
0)
x*
x+
x,
x-
x.
x/
x0
01
02
x3
x4
#7
0!
0"
1#
0$
1%
1&
0'
0(
0)
x*
x+
x,
x-
x.
x/
x0
01
02
x3
x4
#8
0!
0"
1#
0$
1%
1&
0'
0(
0)
x*
x+
x,
x-
x.
x/
x0
01
02
x3
x4
#9
0!
0"
1#
0$
1%
1&
0'
0(
0)
x*
x+
x,
x-
x.
x/
x0
01
02
x3
x4
#10
0!
1"
1#
1$
1%
1&
0'
1(
0)
0*
1+
1,
1-
1.
x/
x0
x1
x2
x3
x4
#11
0!
1"
1#
1$
1%
1&
0'
1(
0)
0*
1+
1,
1-
1.
x/
x0
x1
x2
x3
x4
#12
0!
0"
1#
0$
1%
1&
0'
0(
0)
0*
1+
1,
0-
1.
1/
00
01
02
x3
x4
#13
0!
0"
1#
0$
1%
1&
0'
0(
0)
0*
1+
1,
0-
1.
1/
00
01
02
x3
x4
#14
0!
0"
1#
0$
1%
1&
0'
0(
0)
0*
1+
1,
0-
1.
1/
00
01
02
x3
x4
#15
1!
0"
0#
1$
0%
0&
1'
0(
0)
0*
1+
1,
0-
1.
1/
00
01
02
x3
x4
#16
1!
0"
0#
1$
0%
0&
1'
0(
0)
0*
1+
1,
0-
1.
1/
00
01
02
x3
x4
#17
1!
0"
0#
1$
0%
0&
1'
0(
0)
0*
1+
1,
0-
1.
1/
00
01
02
x3
x4
#18
1!
0"
0#
1$
0%
0&
1'
0(
0)
0*
1+
1,
0-
1.
1/
00
01
02
x3
x4
#19
1!
0"
0#
1$
0%
0&
1'
0(
0)
0*
1+
1,
0-
1.
1/
00
01
02
x3
x4
#20
1!
1"
0#
1$
1%
0&
1'
0(
1)
1*
0+
1,
1-
1.
1/
00
11
02
03
x4
#21
1!
1"
0#
1$
1%
0&
1'
0(
1)
1*
0+
1,
1-
1.
1/
00
11
02
03
x4
#22
1!
0"
0#
1$
0%
0&
1'
0(
0)
1*
0+
1,
1-
1.
1/
00
01
02
x3
x4
#23
1!
0"
0#
1$
0%
0&
1'
0(
0)
1*
0+
1,
1-
1.
1/
00
01
02
x3
x4
#24
1!
0"
0#
1$
0%
0&
1'
0(
0)
1*
0+
1,
1-
1.
1/
00
01
02
x3
x4
#25
1!
0"
0#
1$
0%
0&
1'
0(
0)
1*
0+
1,
1-
1.
1/
00
01
02
x3
x4
#26
1!
0"
0#
1$
0%
0&
1'
0(
0)
1*
0+
1,
1-
1.
1/
00
01
02
x3
x4
#27
1!
0"
0#
1$
0%
0&
1'
0(
0)
1*
0+
1,
1-
1.
1/
00
01
02
x3
x4
#28
1!
0"
0#
1$
0%
0&
1'
0(
0)
1*
0+
1,
1-
1.
1/
00
01
02
x3
x4
#29
1!
0"
0#
1$
0%
0&
1'
0(
0)
1*
0+
1,
1-
1.
1/
00
01
02
x3
x4
#30
1!
0"
0#
1$
0%
0&
1'
0(
0)
1*
0+
1,
1-
1.
1/
00
01
02
x3
x4
#31
1!
0"
0#
1$
0%
0&
1'
0(
0)
1*
0+
1,
1-
1.
1/
00
01
02
x3
x4
#32
1!
0"
0#
1$
0%
0&
1'
0(
0)
1*
0+
1,
1-
1.
1/
00
01
02
x3
x4
#33
1!
0"
0#
1$
0%
0&
1'
0(
0)
1*
0+
1,
1-
1.
1/
00
01
02
x3
x4
#34
1!
0"
0#
1$
0%
0&
1'
0(
0)
1*
0+
1,
1-
1.
1/
00
01
02
x3
x4
#35
1!
0"
0#
1$
0%
0&
1'
0(
0)
1*
0+
1,
1-
1.
1/
00
01
02
x3
x4
#36
1!
0"
0#
1$
0%
0&
1'
0(
0)
1*
0+
1,
1-
1.
1/
00
01
02
x3
x4
#37
1!
0"
0#
1$
0%
0&
1'
0(
0)
1*
0+
1,
1-
1.
1/
00
01
02
x3
x4
#38
1!
0"
0#
1$
0%
0&
1'
0(
0)
1*
0+
1,
1-
1.
1/
00
01
02
x3
x4
#39
1!
0"
0#
1$
0%
0&
1'
0(
0)
1*
0+
1,
1-
1.
1/
00
01
02
x3
x4
#40
0!
0"
1#
0$
1%
1&
0'
0(
0)
1*
0+
1,
1-
1.
1/
00
01
02
x3
x4
#41
0!
0"
1#
0$
1%
1&
0'
0(
0)
1*
0+
1,
1-
1.
1/
00
01
02
x3
x4
#42
0!
0"
1#
0$
1%
1&
0'
0(
0)
1*
0+
1,
1-
1.
1/
00
01
02
x3
x4
#43
0!
0"
1#
0$
1%
1&
0'
0(
0)
1*
0+
1,
1-
1.
1/
00
01
02
x3
x4
#44
0!
0"
1#
0$
1%
1&
0'
0(
0)
1*
0+
1,
1-
1.
1/
00
01
02
x3
x4
#45
0!
0"
1#
0$
1%
1&
0'
0(
0)
1*
0+
1,
1-
1.
1/
00
01
02
x3
x4
#46
0!
0"
1#
0$
1%
1&
0'
0(
0)
1*
0+
1,
1-
1.
1/
00
01
02
x3
x4
#47
0!
0"
1#
0$
1%
1&
0'
0(
0)
1*
0+
1,
1-
1.
1/
00
01
02
x3
x4
#48
0!
0"
1#
0$
1%
1&
0'
0(
0)
1*
0+
1,
1-
1.
1/
00
01
02
x3
x4
#49
0!
0"
1#
0$
1%
1&
0'
0(
0)
1*
0+
1,
1-
1.
1/
00
01
02
x3
x4
#50
0!
1"
1#
1$
1%
1&
0'
1(
0)
0*
1+
1,
1-
1.
1/
00
11
02
03
14
#51
0!
1"
1#
1$
1%
1&
0'
1(
0)
0*
1+
1,
1-
1.
1/
00
11
02
03
14
#52
0!
1"
1#
1$
1%
1&
0'
1(
0)
0*
1+
1,
1-
1.
1/
00
11
02
03
14
#53
0!
1"
1#
1$
1%
1&
0'
1(
0)
0*
1+
1,
1-
1.
1/
00
11
02
03
14
#54
0!
1"
1#
1$
1%
1&
0'
1(
0)
0*
1+
1,
1-
1.
1/
00
11
02
03
14
#55
1!
1"
0#
1$
1%
1&
0'
1(
0)
0*
1+
1,
1-
1.
1/
00
11
02
03
14
#56
1!
1"
0#
1$
1%
1&
0'
1(
0)
0*
1+
1,
1-
1.
1/
00
11
02
03
14
#57
1!
1"
0#
1$
1%
1&
0'
1(
0)
0*
1+
1,
1-
1.
1/
00
11
02
03
14
#58
1!
1"
0#
1$
1%
1&
0'
1(
0)
0*
1+
1,
1-
1.
1/
00
11
02
03
14
#59
1!
1"
0#
1$
1%
1&
0'
1(
0)
0*
1+
1,
1-
1.
1/
00
11
02
03
14
#60
1!
0"
0#
1$
0%
0&
1'
0(
0)
0*
1+
1,
0-
1.
1/
00
01
02
03
14
#61
1!
0"
0#
1$
0%
0&
1'
0(
0)
0*
1+
1,
0-
1.
1/
00
01
02
03
14
#62
1!
0"
0#
1$
0%
0&
1'
0(
0)
0*
1+
1,
0-
1.
1/
00
01
02
03
14
#63
1!
0"
0#
1$
0%
0&
1'
0(
0)
0*
1+
1,
0-
1.
1/
00
01
02
03
14
#64
1!
0"
0#
1$
0%
0&
1'
0(
0)
0*
1+
1,
0-
1.
1/
00
01
02
03
14
#65
1!
0"
0#
1$
0%
0&
1'
0(
0)
0*
1+
1,
0-
1.
1/
00
01
02
03
14
#66
1!
0"
0#
1$
0%
0&
1'
0(
0)
0*
1+
1,
0-
1.
1/
00
01
02
03
14
#67
1!
0"
0#
1$
0%
0&
1'
0(
0)
0*
1+
1,
0-
1.
1/
00
01
02
03
14
#68
1!
0"
0#
1$
0%
0&
1'
0(
0)
0*
1+
1,
0-
1.
1/
00
01
02
03
14
#69
1!
0"
0#
1$
0%
0&
1'
0(
0)
0*
1+
1,
0-
1.
1/
00
01
02
03
14
#70
1!
0"
0#
1$
0%
0&
1'
0(
0)
0*
1+
1,
0-
1.
1/
00
01
02
03
14
#71
1!
0"
0#
1$
0%
0&
1'
0(
0)
0*
1+
1,
0-
1.
1/
00
01
02
03
14
#72
1!
0"
0#
1$
0%
0&
1'
0(
0)
0*
1+
1,
0-
1.
1/
00
01
02
03
14
#73
1!
0"
0#
1$
0%
0&
1'
0(
0)
0*
1+
1,
0-
1.
1/
00
01
02
03
14
#74
1!
0"
0#
1$
0%
0&
1'
0(
0)
0*
1+
1,
0-
1.
1/
00
01
02
03
14
#75
1!
0"
0#
1$
0%
0&
1'
0(
0)
0*
1+
1,
0-
1.
1/
00
01
02
03
14
#76
1!
0"
0#
1$
0%
0&
1'
0(
0)
0*
1+
1,
0-
1.
1/
00
01
02
03
14
#77
1!
0"
0#
1$
0%
0&
1'
0(
0)
0*
1+
1,
0-
1.
1/
00
01
02
03
14
#78
1!
0"
0#
1$
0%
0&
1'
0(
0)
0*
1+
1,
0-
1.
1/
00
01
02
03
14
#79
1!
0"
0#
1$
0%
0&
1'
0(
0)
0*
1+
1,
0-
1.
1/
00
01
02
03
14
#80
1!
0"
0#
1$
0%
0&
1'
0(
0)
0*
1+
1,
0-
1.
1/
00
01
02
03
14
#81
1!
0"
0#
1$
0%
0&
1'
0(
0)
0*
1+
1,
0-
1.
1/
00
01
02
03
14
#82
1!
0"
0#
1$
0%
0&
1'
0(
0)
0*
1+
1,
0-
1.
1/
00
01
02
03
14
#83
1!
0"
0#
1$
0%
0&
1'
0(
0)
0*
1+
1,
0-
1.
1/
00
01
02
03
14
#84
1!
0"
0#
1$
0%
0&
1'
0(
0)
0*
1+
1,
0-
1.
1/
00
01
02
03
14
#85
1!
1"
0#
1$
1%
0&
1'
0(
1)
1*
0+
1,
1-
1.
1/
00
11
02
03
14
#86
1!
1"
0#
1$
1%
0&
1'
0(
1)
1*
0+
1,
1-
1.
1/
00
11
02
03
14
#87
1!
1"
0#
1$
1%
0&
1'
0(
1)
1*
0+
1,
1-
1.
1/
00
11
02
03
14
#88
1!
1"
0#
1$
1%
0&
1'
0(
1)
1*
0+
1,
1-
1.
1/
00
11
02
03
14
#89
1!
1"
0#
1$
1%
0&
1'
0(
1)
1*
0+
1,
1-
1.
1/
00
11
02
03
14
#90
1!
1"
0#
1$
1%
0&
1'
0(
1)
1*
0+
1,
1-
1.
1/
00
11
02
03
14
#91
1!
1"
0#
1$
1%
0&
1'
0(
1)
1*
0+
1,
1-
1.
1/
00
11
02
03
14
#92
1!
1"
0#
1$
1%
0&
1'
0(
1)
1*
0+
1,
1-
1.
1/
00
11
02
03
14
#93
1!
1"
0#
1$
1%
0&
1'
0(
1)
1*
0+
1,
1-
1.
1/
00
11
02
03
14
#94
1!
1"
0#
1$
1%
0&
1'
0(
1)
1*
0+
1,
1-
1.
1/
00
11
02
03
14
#95
0!
0"
1#
0$
1%
1&
0'
0(
0)
1*
0+
1,
1-
1.
1/
00
01
02
03
14
#96
0!
0"
1#
0$
1%
1&
0'
0(
0)
1*
0+
1,
1-
1.
1/
00
01
02
03
14
#97
0!
0"
1#
0$
1%
1&
0'
0(
0)
1*
0+
1,
1-
1.
1/
00
01
02
03
14
#98
0!
0"
1#
0$
1%
1&
0'
0(
0)
1*
0+
1,
1-
1.
1/
00
01
02
03
14
#99
0!
0"
1#
0$
1%
1&
0'
0(
0)
1*
0+
1,
1-
1.
1/
00
01
02
03
14
#100
0!
0"
1#
0$
1%
1&
0'
0(
0)
1*
0+
1,
1-
1.
1/
00
01
02
03
14
#101
0!
0"
1#
0$
1%
1&
0'
0(
0)
1*
0+
1,
1-
1.
1/
00
01
02
03
14
#102
0!
0"
1#
0$
1%
1&
0'
0(
0)
1*
0+
1,
1-
1.
1/
00
01
02
03
14
#103
0!
0"
1#
0$
1%
1&
0'
0(
0)
1*
0+
1,
1-
1.
1/
00
01
02
03
14
#104
0!
0"
1#
0$
1%
1&
0'
0(
0)
1*
0+
1,
1-
1.
1/
00
01
02
03
14
