bin/2bit_shift_REG_hier.vcd
$date
  23:47:02 28/01/2021
$end
$version
  Alexander Lapin Petri Nets Logic Simulator.
$end
$comment
  Any comment text.
$end
$timescale 1ps $end
$scope module logic $end
$var wire 1 !  C $end
$var wire 1 "  D $end
$var wire 1 #  Q1 $end
$var wire 1 $  Q2 $end
$var wire 1 %  net0 $end
$var wire 1 &  net1 $end
$var wire 1 '  net2 $end
$var wire 1 (  net3 $end
$var wire 1 )  net4 $end
$var wire 1 *  net5 $end
$var wire 1 +  net6 $end
$var wire 1 ,  net0 $end
$var wire 1 -  net1 $end
$var wire 1 .  net2 $end
$var wire 1 /  net3 $end
$var wire 1 0  net4 $end
$var wire 1 1  net5 $end
$var wire 1 2  net6 $end
$var wire 1 3  nQ1 $end
$var wire 1 4  nQ2 $end
$upscope $end
$enddefinitions $end
$dumpvars
x! 
x" 
x# 
x$ 
x% 
x& 
x' 
x( 
x) 
x* 
x+ 
x, 
x- 
x. 
x/ 
x0 
x1 
x2 
x3 
x4 
$end
#0
0! 
0" 
x# 
x$ 
x% 
x& 
x' 
x( 
x) 
x* 
x+ 
x, 
x- 
x. 
x/ 
x0 
x1 
x2 
x3 
x4 
#10000
1! 
0" 
x# 
x$ 
x% 
x& 
x' 
x( 
x) 
x* 
x+ 
x, 
x- 
x. 
x/ 
x0 
x1 
x2 
x3 
x4 
#12000
0! 
0" 
x# 
x$ 
x% 
x& 
x' 
x( 
x) 
x* 
x+ 
x, 
x- 
x. 
x/ 
x0 
x1 
x2 
x3 
x4 
#15000
0! 
1" 
x# 
x$ 
x% 
x& 
x' 
x( 
x) 
x* 
x+ 
x, 
x- 
x. 
x/ 
x0 
x1 
x2 
x3 
x4 
#20000
1! 
1" 
x# 
x$ 
x% 
x& 
x' 
x( 
x) 
x* 
x+ 
x, 
x- 
x. 
x/ 
x0 
x1 
x2 
x3 
x4 
#22000
0! 
1" 
x# 
x$ 
x% 
x& 
x' 
x( 
x) 
x* 
x+ 
x, 
x- 
x. 
x/ 
x0 
x1 
x2 
x3 
x4 
#40000
0! 
0" 
x# 
x$ 
x% 
x& 
x' 
x( 
x) 
x* 
x+ 
x, 
x- 
x. 
x/ 
x0 
x1 
x2 
x3 
x4 
#50000
1! 
0" 
x# 
x$ 
x% 
x& 
x' 
x( 
x) 
x* 
x+ 
x, 
x- 
x. 
x/ 
x0 
x1 
x2 
x3 
x4 
#55000
1! 
1" 
x# 
x$ 
x% 
x& 
x' 
x( 
x) 
x* 
x+ 
x, 
x- 
x. 
x/ 
x0 
x1 
x2 
x3 
x4 
#60000
0! 
1" 
x# 
x$ 
x% 
x& 
x' 
x( 
x) 
x* 
x+ 
x, 
x- 
x. 
x/ 
x0 
x1 
x2 
x3 
x4 
#85000
1! 
1" 
x# 
x$ 
x% 
x& 
x' 
x( 
x) 
x* 
x+ 
x, 
x- 
x. 
x/ 
x0 
x1 
x2 
x3 
x4 
#95000
0! 
0" 
x# 
x$ 
x% 
x& 
x' 
x( 
x) 
x* 
x+ 
x, 
x- 
x. 
x/ 
x0 
x1 
x2 
x3 
x4 
