bin/2bit_shift_REG_hier.vcd
$date
  19:17:03 24/10/2017
$end
$version
  Alexander Lapin Petri Nets Logic Simulator.
$end
$comment
  Any comment text.
$end
$timescale 1ns $end
$scope module logic $end
$var wire 1 ! C $end
$var wire 1 " D $end
$var wire 1 # Q1 $end
$var wire 1 $ Q2 $end
$var wire 1 % net0 $end
$var wire 1 & net1 $end
$var wire 1 ' net2 $end
$var wire 1 ( net3 $end
$var wire 1 ) net4 $end
$var wire 1 * net5 $end
$var wire 1 + net6 $end
$var wire 1 , net0 $end
$var wire 1 - net1 $end
$var wire 1 . net2 $end
$var wire 1 / net3 $end
$var wire 1 0 net4 $end
$var wire 1 1 net5 $end
$var wire 1 2 net6 $end
$var wire 1 3 nQ1 $end
$var wire 1 4 nQ2 $end
$upscope $end
$enddefinitions $end
$dumpvars
x!
x"
x#
x$
x%
x&
x'
x(
x)
x*
x+
x,
x-
x.
x/
x0
x1
x2
x3
x4
$end
#0
0!
0"
x#
x$
1%
0&
1'
1(
0)
0*
0+
x,
x-
x.
x/
x0
01
02
x3
x4
#10
1!
0"
0#
x$
1%
1&
1'
1(
0)
1*
0+
1,
1-
1.
x/
x0
x1
x2
13
x4
#12
0!
0"
0#
x$
1%
0&
1'
1(
0)
0*
0+
1,
0-
1.
1/
00
01
02
13
x4
#15
0!
1"
0#
x$
0%
1&
0'
0(
1)
0*
0+
1,
0-
1.
1/
00
01
02
13
x4
#20
1!
1"
1#
0$
0%
1&
1'
0(
1)
0*
1+
0,
1-
1.
1/
00
11
02
03
14
#22
0!
1"
1#
0$
0%
1&
0'
0(
1)
0*
0+
0,
1-
0.
0/
10
01
02
03
14
#40
0!
0"
1#
0$
1%
0&
1'
1(
0)
0*
0+
0,
1-
0.
0/
10
01
02
03
14
#50
1!
0"
0#
1$
1%
1&
1'
1(
0)
1*
0+
1,
1-
1.
0/
10
01
12
13
04
#55
1!
1"
0#
1$
0%
1&
1'
1(
0)
1*
0+
1,
1-
1.
0/
10
01
12
13
04
#60
0!
1"
0#
1$
0%
1&
0'
0(
1)
0*
0+
1,
0-
1.
1/
00
01
02
13
04
#85
1!
1"
1#
0$
0%
1&
1'
0(
1)
0*
1+
0,
1-
1.
1/
00
11
02
03
14
