bin/3inv.vcd
$date
  19:12:00 14/09/2016
$end
$version
  Alexander Lapin Petri Nets Logic Simulator.
$end
$comment
  Any comment text.
$end
$timescale 1ns $end
$scope module logic $end
$var wire 1 ! inv1 $end
$var wire 1 " in $end
$var wire 1 # inv2 $end
$var wire 1 $ out $end
$upscope $end
$enddefinitions $end
$dumpvars
x!
x"
x#
x$
$end
#0
1!
0"
0#
1$
#1
1!
0"
0#
1$
#2
1!
0"
0#
1$
#3
1!
0"
0#
1$
#4
1!
0"
0#
1$
#5
0!
1"
1#
0$
#6
0!
1"
1#
0$
#7
0!
1"
1#
0$
#8
0!
1"
1#
0$
#9
0!
1"
1#
0$
#10
0!
1"
1#
0$
#11
0!
1"
1#
0$
#12
1!
0"
0#
1$
#13
1!
0"
0#
1$
#14
1!
0"
0#
1$
#15
1!
0"
0#
1$
#16
1!
0"
0#
1$
#17
1!
0"
0#
1$
#18
1!
0"
0#
1$
#19
1!
0"
0#
1$
#20
1!
0"
0#
1$
#21
1!
0"
0#
1$
#22
1!
0"
0#
1$
#23
1!
0"
0#
1$
#24
1!
0"
0#
1$
#25
1!
0"
0#
1$
#26
1!
0"
0#
1$
#27
1!
0"
0#
1$
#28
1!
0"
0#
1$
#29
1!
0"
0#
1$
#30
1!
0"
0#
1$
#31
1!
0"
0#
1$
#32
0!
1"
1#
0$
#33
0!
1"
1#
0$
#34
0!
1"
1#
0$
#35
0!
1"
1#
0$
#36
0!
1"
1#
0$
#37
0!
1"
1#
0$
#38
0!
1"
1#
0$
#39
0!
1"
1#
0$
#40
0!
1"
1#
0$
#41
0!
1"
1#
0$
