bin/demux2x4.vcd
$date
  19:45:08 04/10/2016
$end
$version
  Alexander Lapin Petri Nets Logic Simulator.
$end
$comment
  Any comment text.
$end
$timescale 1ns $end
$scope module logic $end
$var wire 1 ! nx1 $end
$var wire 1 " x1 $end
$var wire 1 # nx2 $end
$var wire 1 $ x2 $end
$var wire 1 % y0 $end
$var wire 1 & y1 $end
$var wire 1 ' y2 $end
$var wire 1 ( y3 $end
$upscope $end
$enddefinitions $end
$dumpvars
x!
x"
x#
x$
x%
x&
x'
x(
$end
#0
1!
0"
1#
0$
1%
0&
0'
0(
#1
1!
0"
1#
0$
1%
0&
0'
0(
#2
1!
0"
1#
0$
1%
0&
0'
0(
#3
1!
0"
1#
0$
1%
0&
0'
0(
#4
1!
0"
1#
0$
1%
0&
0'
0(
#5
0!
1"
0#
1$
0%
0&
0'
1(
#6
0!
1"
0#
1$
0%
0&
0'
1(
#7
0!
1"
0#
1$
0%
0&
0'
1(
#8
0!
1"
0#
1$
0%
0&
0'
1(
#9
0!
1"
0#
1$
0%
0&
0'
1(
#10
0!
1"
0#
1$
0%
0&
0'
1(
#11
0!
1"
0#
1$
0%
0&
0'
1(
#12
0!
1"
0#
1$
0%
0&
0'
1(
#13
0!
1"
0#
1$
0%
0&
0'
1(
#14
0!
1"
0#
1$
0%
0&
0'
1(
#15
1!
0"
0#
1$
0%
1&
0'
0(
#16
1!
0"
0#
1$
0%
1&
0'
0(
#17
1!
0"
0#
1$
0%
1&
0'
0(
#18
1!
0"
0#
1$
0%
1&
0'
0(
#19
1!
0"
0#
1$
0%
1&
0'
0(
#20
1!
0"
0#
1$
0%
1&
0'
0(
#21
1!
0"
0#
1$
0%
1&
0'
0(
#22
1!
0"
0#
1$
0%
1&
0'
0(
#23
1!
0"
0#
1$
0%
1&
0'
0(
#24
1!
0"
0#
1$
0%
1&
0'
0(
#25
0!
1"
1#
0$
0%
0&
1'
0(
#26
0!
1"
1#
0$
0%
0&
1'
0(
#27
0!
1"
1#
0$
0%
0&
1'
0(
#28
0!
1"
1#
0$
0%
0&
1'
0(
#29
0!
1"
1#
0$
0%
0&
1'
0(
#30
0!
1"
1#
0$
0%
0&
1'
0(
#31
0!
1"
1#
0$
0%
0&
1'
0(
#32
0!
1"
1#
0$
0%
0&
1'
0(
#33
0!
1"
1#
0$
0%
0&
1'
0(
#34
0!
1"
1#
0$
0%
0&
1'
0(
#35
1!
0"
1#
0$
1%
0&
0'
0(
#36
1!
0"
1#
0$
1%
0&
0'
0(
#37
1!
0"
1#
0$
1%
0&
0'
0(
#38
1!
0"
1#
0$
1%
0&
0'
0(
#39
1!
0"
1#
0$
1%
0&
0'
0(
#40
1!
0"
1#
0$
1%
0&
0'
0(
#41
1!
0"
1#
0$
1%
0&
0'
0(
#42
1!
0"
1#
0$
1%
0&
0'
0(
#43
1!
0"
1#
0$
1%
0&
0'
0(
#44
1!
0"
1#
0$
1%
0&
0'
0(
#45
0!
1"
0#
1$
0%
0&
0'
1(
#46
0!
1"
0#
1$
0%
0&
0'
1(
#47
0!
1"
0#
1$
0%
0&
0'
1(
#48
0!
1"
0#
1$
0%
0&
0'
1(
#49
0!
1"
0#
1$
0%
0&
0'
1(
#50
0!
1"
0#
1$
0%
0&
0'
1(
#51
0!
1"
0#
1$
0%
0&
0'
1(
#52
0!
1"
0#
1$
0%
0&
0'
1(
#53
0!
1"
0#
1$
0%
0&
0'
1(
#54
0!
1"
0#
1$
0%
0&
0'
1(
