bin/mux4x2.vcd
$date
  17:01:46 22/09/2016
$end
$version
  Alexander Lapin Petri Nets Logic Simulator.
$end
$comment
  Any comment text.
$end
$timescale 1ns $end
$scope module logic $end
$var wire 1 ! nx1 $end
$var wire 1 " x1 $end
$var wire 1 # nx2 $end
$var wire 1 $ x2 $end
$var wire 1 % nx3 $end
$var wire 1 & x3 $end
$var wire 1 ' nx4 $end
$var wire 1 ( x4 $end
$var wire 1 ) net1 $end
$var wire 1 * net2 $end
$var wire 1 + net3 $end
$var wire 1 , y1 $end
$var wire 1 - y0 $end
$upscope $end
$enddefinitions $end
$dumpvars
x!
x"
x#
x$
x%
x&
x'
x(
x)
x*
x+
x,
x-
$end
#0
1!
0"
1#
0$
1%
0&
1'
0(
0)
0*
0+
0,
0-
#1
1!
0"
1#
0$
1%
0&
1'
0(
0)
0*
0+
0,
0-
#2
1!
0"
1#
0$
1%
0&
1'
0(
0)
0*
0+
0,
0-
#3
1!
0"
1#
0$
1%
0&
1'
0(
0)
0*
0+
0,
0-
#4
1!
0"
1#
0$
1%
0&
1'
0(
0)
0*
0+
0,
0-
#5
0!
1"
1#
0$
1%
0&
1'
0(
0)
0*
0+
0,
0-
#6
0!
1"
1#
0$
1%
0&
1'
0(
0)
0*
0+
0,
0-
#7
0!
1"
1#
0$
1%
0&
1'
0(
0)
0*
0+
0,
0-
#8
0!
1"
1#
0$
1%
0&
1'
0(
0)
0*
0+
0,
0-
#9
0!
1"
1#
0$
1%
0&
1'
0(
0)
0*
0+
0,
0-
#10
1!
0"
0#
1$
1%
0&
1'
0(
0)
0*
1+
0,
1-
#11
1!
0"
0#
1$
1%
0&
1'
0(
0)
0*
1+
0,
1-
#12
1!
0"
0#
1$
1%
0&
1'
0(
0)
0*
1+
0,
1-
#13
1!
0"
0#
1$
1%
0&
1'
0(
0)
0*
1+
0,
1-
#14
1!
0"
0#
1$
1%
0&
1'
0(
0)
0*
1+
0,
1-
#15
0!
1"
0#
1$
1%
0&
1'
0(
0)
0*
0+
0,
1-
#16
0!
1"
0#
1$
1%
0&
1'
0(
0)
0*
0+
0,
1-
#17
0!
1"
0#
1$
1%
0&
1'
0(
0)
0*
0+
0,
1-
#18
0!
1"
0#
1$
1%
0&
1'
0(
0)
0*
0+
0,
1-
#19
0!
1"
0#
1$
1%
0&
1'
0(
0)
0*
0+
0,
1-
#20
1!
0"
1#
0$
0%
1&
1'
0(
1)
0*
0+
1,
1-
#21
1!
0"
1#
0$
0%
1&
1'
0(
1)
0*
0+
1,
1-
#22
1!
0"
1#
0$
0%
1&
1'
0(
1)
0*
0+
1,
1-
#23
1!
0"
1#
0$
0%
1&
1'
0(
1)
0*
0+
1,
1-
#24
1!
0"
1#
0$
0%
1&
1'
0(
1)
0*
0+
1,
1-
#25
0!
1"
1#
0$
0%
1&
1'
0(
0)
0*
0+
0,
1-
#26
0!
1"
1#
0$
0%
1&
1'
0(
0)
0*
0+
0,
1-
#27
0!
1"
1#
0$
0%
1&
1'
0(
0)
0*
0+
0,
1-
#28
0!
1"
1#
0$
0%
1&
1'
0(
0)
0*
0+
0,
1-
#29
0!
1"
1#
0$
0%
1&
1'
0(
0)
0*
0+
0,
1-
#30
1!
0"
0#
1$
0%
1&
1'
0(
0)
0*
0+
0,
1-
#31
1!
0"
0#
1$
0%
1&
1'
0(
0)
0*
0+
0,
1-
#32
1!
0"
0#
1$
0%
1&
1'
0(
0)
0*
0+
0,
1-
#33
1!
0"
0#
1$
0%
1&
1'
0(
0)
0*
0+
0,
1-
#34
1!
0"
0#
1$
0%
1&
1'
0(
0)
0*
0+
0,
1-
#35
0!
1"
0#
1$
0%
1&
1'
0(
0)
0*
0+
0,
1-
#36
0!
1"
0#
1$
0%
1&
1'
0(
0)
0*
0+
0,
1-
#37
0!
1"
0#
1$
0%
1&
1'
0(
0)
0*
0+
0,
1-
#38
0!
1"
0#
1$
0%
1&
1'
0(
0)
0*
0+
0,
1-
#39
0!
1"
0#
1$
0%
1&
1'
0(
0)
0*
0+
0,
1-
#40
1!
0"
1#
0$
1%
0&
0'
1(
0)
1*
0+
1,
1-
#41
1!
0"
1#
0$
1%
0&
0'
1(
0)
1*
0+
1,
1-
#42
1!
0"
1#
0$
1%
0&
0'
1(
0)
1*
0+
1,
1-
#43
1!
0"
1#
0$
1%
0&
0'
1(
0)
1*
0+
1,
1-
#44
1!
0"
1#
0$
1%
0&
0'
1(
0)
1*
0+
1,
1-
#45
0!
1"
1#
0$
1%
0&
0'
1(
0)
0*
0+
0,
0-
#46
0!
1"
1#
0$
1%
0&
0'
1(
0)
0*
0+
0,
0-
#47
0!
1"
1#
0$
1%
0&
0'
1(
0)
0*
0+
0,
0-
#48
0!
1"
1#
0$
1%
0&
0'
1(
0)
0*
0+
0,
0-
#49
0!
1"
1#
0$
1%
0&
0'
1(
0)
0*
0+
0,
0-
#50
1!
0"
0#
1$
1%
0&
0'
1(
0)
0*
0+
0,
0-
#51
1!
0"
0#
1$
1%
0&
0'
1(
0)
0*
0+
0,
0-
#52
1!
0"
0#
1$
1%
0&
0'
1(
0)
0*
0+
0,
0-
#53
1!
0"
0#
1$
1%
0&
0'
1(
0)
0*
0+
0,
0-
#54
1!
0"
0#
1$
1%
0&
0'
1(
0)
0*
0+
0,
0-
#55
0!
1"
0#
1$
1%
0&
0'
1(
0)
0*
0+
0,
0-
#56
0!
1"
0#
1$
1%
0&
0'
1(
0)
0*
0+
0,
0-
#57
0!
1"
0#
1$
1%
0&
0'
1(
0)
0*
0+
0,
0-
#58
0!
1"
0#
1$
1%
0&
0'
1(
0)
0*
0+
0,
0-
#59
0!
1"
0#
1$
1%
0&
0'
1(
0)
0*
0+
0,
0-
#60
1!
0"
1#
0$
0%
1&
0'
1(
0)
0*
0+
0,
0-
#61
1!
0"
1#
0$
0%
1&
0'
1(
0)
0*
0+
0,
0-
#62
1!
0"
1#
0$
0%
1&
0'
1(
0)
0*
0+
0,
0-
#63
1!
0"
1#
0$
0%
1&
0'
1(
0)
0*
0+
0,
0-
#64
1!
0"
1#
0$
0%
1&
0'
1(
0)
0*
0+
0,
0-
#65
0!
1"
1#
0$
0%
1&
0'
1(
0)
0*
0+
0,
0-
#66
0!
1"
1#
0$
0%
1&
0'
1(
0)
0*
0+
0,
0-
#67
0!
1"
1#
0$
0%
1&
0'
1(
0)
0*
0+
0,
0-
#68
0!
1"
1#
0$
0%
1&
0'
1(
0)
0*
0+
0,
0-
#69
0!
1"
1#
0$
0%
1&
0'
1(
0)
0*
0+
0,
0-
#70
1!
0"
0#
1$
0%
1&
0'
1(
0)
0*
0+
0,
0-
#71
1!
0"
0#
1$
0%
1&
0'
1(
0)
0*
0+
0,
0-
#72
1!
0"
0#
1$
0%
1&
0'
1(
0)
0*
0+
0,
0-
#73
1!
0"
0#
1$
0%
1&
0'
1(
0)
0*
0+
0,
0-
#74
1!
0"
0#
1$
0%
1&
0'
1(
0)
0*
0+
0,
0-
#75
0!
1"
0#
1$
0%
1&
0'
1(
0)
0*
0+
0,
0-
#76
0!
1"
0#
1$
0%
1&
0'
1(
0)
0*
0+
0,
0-
#77
0!
1"
0#
1$
0%
1&
0'
1(
0)
0*
0+
0,
0-
#78
0!
1"
0#
1$
0%
1&
0'
1(
0)
0*
0+
0,
0-
#79
0!
1"
0#
1$
0%
1&
0'
1(
0)
0*
0+
0,
0-
#80
1!
0"
1#
0$
1%
0&
1'
0(
0)
0*
0+
0,
0-
#81
1!
0"
1#
0$
1%
0&
1'
0(
0)
0*
0+
0,
0-
#82
1!
0"
1#
0$
1%
0&
1'
0(
0)
0*
0+
0,
0-
#83
1!
0"
1#
0$
1%
0&
1'
0(
0)
0*
0+
0,
0-
#84
1!
0"
1#
0$
1%
0&
1'
0(
0)
0*
0+
0,
0-
#85
1!
0"
1#
0$
1%
0&
1'
0(
0)
0*
0+
0,
0-
#86
1!
0"
1#
0$
1%
0&
1'
0(
0)
0*
0+
0,
0-
#87
1!
0"
1#
0$
1%
0&
1'
0(
0)
0*
0+
0,
0-
#88
1!
0"
1#
0$
1%
0&
1'
0(
0)
0*
0+
0,
0-
#89
1!
0"
1#
0$
1%
0&
1'
0(
0)
0*
0+
0,
0-
