bin/shifter_2_bits.vcd
$date
  00:24:26 17/07/2016
$end
$version
  Alexander Lapin Petri Nets Logic Simulator.
$end
$comment
  Any comment text.
$end
$timescale 1ns $end
$scope module logic $end
$var wire 1 ! D $end
$var wire 1 " C $end
$var wire 1 # Q0 $end
$var wire 1 $ Q1 $end
$upscope $end
$enddefinitions $end
$dumpvars
x!
x"
x#
x$
$end
#0
0!
0"
x#
x$
#1
0!
0"
x#
x$
#2
0!
0"
x#
x$
#3
0!
0"
x#
x$
#4
0!
0"
x#
x$
#5
0!
0"
x#
x$
#6
0!
0"
x#
x$
#7
0!
0"
x#
x$
#8
0!
0"
x#
x$
#9
0!
0"
x#
x$
#10
0!
1"
0#
x$
#11
0!
1"
0#
x$
#12
0!
0"
0#
x$
#13
0!
0"
0#
x$
#14
0!
0"
0#
x$
#15
1!
0"
0#
x$
#16
1!
0"
0#
x$
#17
1!
0"
0#
x$
#18
1!
0"
0#
x$
#19
1!
0"
0#
x$
#20
1!
1"
1#
0$
#21
1!
1"
1#
0$
#22
1!
0"
1#
0$
#23
1!
0"
1#
0$
#24
1!
0"
1#
0$
#25
1!
0"
1#
0$
#26
1!
0"
1#
0$
#27
1!
0"
1#
0$
#28
1!
0"
1#
0$
#29
1!
0"
1#
0$
#30
1!
1"
1#
1$
#31
1!
1"
1#
1$
#32
1!
0"
1#
1$
#33
1!
0"
1#
1$
#34
1!
0"
1#
1$
#35
1!
0"
1#
1$
#36
1!
0"
1#
1$
#37
1!
0"
1#
1$
#38
1!
0"
1#
1$
#39
1!
0"
1#
1$
#40
0!
1"
1#
1$
#41
0!
1"
1#
1$
#42
0!
0"
1#
1$
#43
0!
0"
1#
1$
#44
0!
0"
1#
1$
#45
0!
0"
1#
1$
#46
0!
0"
1#
1$
#47
0!
0"
1#
1$
#48
0!
0"
1#
1$
#49
0!
0"
1#
1$
#50
0!
1"
0#
1$
#51
0!
1"
0#
1$
#52
0!
0"
0#
1$
#53
0!
0"
0#
1$
#54
0!
0"
0#
1$
#55
0!
0"
0#
1$
#56
0!
0"
0#
1$
#57
0!
0"
0#
1$
#58
0!
0"
0#
1$
#59
0!
0"
0#
1$
#60
0!
1"
0#
0$
#61
0!
1"
0#
0$
#62
0!
0"
0#
0$
#63
0!
0"
0#
0$
#64
0!
0"
0#
0$
#65
0!
0"
0#
0$
#66
0!
0"
0#
0$
#67
0!
0"
0#
0$
#68
0!
0"
0#
0$
#69
0!
0"
0#
0$
#70
0!
1"
0#
0$
#71
0!
1"
0#
0$
#72
0!
0"
0#
0$
#73
0!
0"
0#
0$
#74
0!
0"
0#
0$
#75
0!
0"
0#
0$
#76
0!
0"
0#
0$
#77
0!
0"
0#
0$
#78
0!
0"
0#
0$
#79
0!
0"
0#
0$
#80
0!
0"
0#
0$
#81
0!
0"
0#
0$
