bin/trig_DFF.vcd
$date
  15:49:13 21/03/2017
$end
$version
  Alexander Lapin Petri Nets Logic Simulator.
$end
$comment
  Any comment text.
$end
$timescale 1ns $end
$scope module logic $end
$var wire 1 ! net0 $end
$var wire 1 " D $end
$var wire 1 # net1 $end
$var wire 1 $ C $end
$var wire 1 % net2 $end
$var wire 1 & net3 $end
$var wire 1 ' net4 $end
$var wire 1 ( net5 $end
$var wire 1 ) net6 $end
$var wire 1 * Q $end
$var wire 1 + nQ $end
$upscope $end
$enddefinitions $end
$dumpvars
x!
x"
x#
x$
x%
x&
x'
x(
x)
x*
x+
$end
#0
1!
0"
0#
0$
1%
1&
0'
0(
0)
x*
x+
#10
1!
0"
1#
1$
1%
1&
0'
1(
0)
x*
x+
#11
1!
0"
1#
1$
1%
1&
0'
1(
0)
0*
x+
#12
1!
0"
0#
0$
1%
1&
0'
0(
0)
0*
1+
#15
0!
1"
1#
0$
0%
0&
1'
0(
0)
0*
1+
#20
0!
1"
1#
1$
1%
0&
1'
0(
1)
0*
1+
#21
0!
1"
1#
1$
1%
0&
1'
0(
1)
0*
0+
#22
0!
1"
1#
0$
0%
0&
1'
0(
0)
1*
0+
#40
1!
0"
0#
0$
1%
1&
0'
0(
0)
1*
0+
#50
1!
0"
1#
1$
1%
1&
0'
1(
0)
1*
0+
#51
1!
0"
1#
1$
1%
1&
0'
1(
0)
0*
0+
#52
1!
0"
1#
1$
1%
1&
0'
1(
0)
0*
1+
#55
0!
1"
1#
1$
1%
1&
0'
1(
0)
0*
1+
#60
0!
1"
1#
0$
0%
0&
1'
0(
0)
0*
1+
#85
0!
1"
1#
1$
1%
0&
1'
0(
1)
0*
1+
#86
0!
1"
1#
1$
1%
0&
1'
0(
1)
0*
0+
#87
0!
1"
1#
1$
1%
0&
1'
0(
1)
1*
0+
