bin/trig_DFF.vcd
$date
  16:36:23 22/09/2016
$end
$version
  Alexander Lapin Petri Nets Logic Simulator.
$end
$comment
  Any comment text.
$end
$timescale 1ns $end
$scope module logic $end
$var wire 1 ! net0 $end
$var wire 1 " D $end
$var wire 1 # net1 $end
$var wire 1 $ C $end
$var wire 1 % net2 $end
$var wire 1 & net3 $end
$var wire 1 ' net4 $end
$var wire 1 ( net5 $end
$var wire 1 ) net6 $end
$var wire 1 * Q $end
$var wire 1 + nQ $end
$upscope $end
$enddefinitions $end
$dumpvars
x!
x"
x#
x$
x%
x&
x'
x(
x)
x*
x+
$end
#0
1!
0"
0#
0$
1%
1&
0'
0(
0)
x*
x+
#1
1!
0"
0#
0$
1%
1&
0'
0(
0)
x*
x+
#2
1!
0"
0#
0$
1%
1&
0'
0(
0)
x*
x+
#3
1!
0"
0#
0$
1%
1&
0'
0(
0)
x*
x+
#4
1!
0"
0#
0$
1%
1&
0'
0(
0)
x*
x+
#5
1!
0"
0#
0$
1%
1&
0'
0(
0)
x*
x+
#6
1!
0"
0#
0$
1%
1&
0'
0(
0)
x*
x+
#7
1!
0"
0#
0$
1%
1&
0'
0(
0)
x*
x+
#8
1!
0"
0#
0$
1%
1&
0'
0(
0)
x*
x+
#9
1!
0"
0#
0$
1%
1&
0'
0(
0)
x*
x+
#10
1!
0"
1#
1$
1%
1&
0'
1(
0)
0*
1+
#11
1!
0"
1#
1$
1%
1&
0'
1(
0)
0*
1+
#12
1!
0"
0#
0$
1%
1&
0'
0(
0)
0*
1+
#13
1!
0"
0#
0$
1%
1&
0'
0(
0)
0*
1+
#14
1!
0"
0#
0$
1%
1&
0'
0(
0)
0*
1+
#15
0!
1"
1#
0$
0%
0&
1'
0(
0)
0*
1+
#16
0!
1"
1#
0$
0%
0&
1'
0(
0)
0*
1+
#17
0!
1"
1#
0$
0%
0&
1'
0(
0)
0*
1+
#18
0!
1"
1#
0$
0%
0&
1'
0(
0)
0*
1+
#19
0!
1"
1#
0$
0%
0&
1'
0(
0)
0*
1+
#20
0!
1"
1#
1$
1%
0&
1'
0(
1)
1*
0+
#21
0!
1"
1#
1$
1%
0&
1'
0(
1)
1*
0+
#22
0!
1"
1#
0$
0%
0&
1'
0(
0)
1*
0+
#23
0!
1"
1#
0$
0%
0&
1'
0(
0)
1*
0+
#24
0!
1"
1#
0$
0%
0&
1'
0(
0)
1*
0+
#25
0!
1"
1#
0$
0%
0&
1'
0(
0)
1*
0+
#26
0!
1"
1#
0$
0%
0&
1'
0(
0)
1*
0+
#27
0!
1"
1#
0$
0%
0&
1'
0(
0)
1*
0+
#28
0!
1"
1#
0$
0%
0&
1'
0(
0)
1*
0+
#29
0!
1"
1#
0$
0%
0&
1'
0(
0)
1*
0+
#30
0!
1"
1#
0$
0%
0&
1'
0(
0)
1*
0+
#31
0!
1"
1#
0$
0%
0&
1'
0(
0)
1*
0+
#32
0!
1"
1#
0$
0%
0&
1'
0(
0)
1*
0+
#33
0!
1"
1#
0$
0%
0&
1'
0(
0)
1*
0+
#34
0!
1"
1#
0$
0%
0&
1'
0(
0)
1*
0+
#35
0!
1"
1#
0$
0%
0&
1'
0(
0)
1*
0+
#36
0!
1"
1#
0$
0%
0&
1'
0(
0)
1*
0+
#37
0!
1"
1#
0$
0%
0&
1'
0(
0)
1*
0+
#38
0!
1"
1#
0$
0%
0&
1'
0(
0)
1*
0+
#39
0!
1"
1#
0$
0%
0&
1'
0(
0)
1*
0+
#40
1!
0"
0#
0$
1%
1&
0'
0(
0)
1*
0+
#41
1!
0"
0#
0$
1%
1&
0'
0(
0)
1*
0+
#42
1!
0"
0#
0$
1%
1&
0'
0(
0)
1*
0+
#43
1!
0"
0#
0$
1%
1&
0'
0(
0)
1*
0+
#44
1!
0"
0#
0$
1%
1&
0'
0(
0)
1*
0+
#45
1!
0"
0#
0$
1%
1&
0'
0(
0)
1*
0+
#46
1!
0"
0#
0$
1%
1&
0'
0(
0)
1*
0+
#47
1!
0"
0#
0$
1%
1&
0'
0(
0)
1*
0+
#48
1!
0"
0#
0$
1%
1&
0'
0(
0)
1*
0+
#49
1!
0"
0#
0$
1%
1&
0'
0(
0)
1*
0+
#50
1!
0"
1#
1$
1%
1&
0'
1(
0)
0*
1+
#51
1!
0"
1#
1$
1%
1&
0'
1(
0)
0*
1+
#52
1!
0"
1#
1$
1%
1&
0'
1(
0)
0*
1+
#53
1!
0"
1#
1$
1%
1&
0'
1(
0)
0*
1+
#54
1!
0"
1#
1$
1%
1&
0'
1(
0)
0*
1+
#55
0!
1"
1#
1$
1%
1&
0'
1(
0)
0*
1+
#56
0!
1"
1#
1$
1%
1&
0'
1(
0)
0*
1+
#57
0!
1"
1#
1$
1%
1&
0'
1(
0)
0*
1+
#58
0!
1"
1#
1$
1%
1&
0'
1(
0)
0*
1+
#59
0!
1"
1#
1$
1%
1&
0'
1(
0)
0*
1+
#60
0!
1"
1#
0$
0%
0&
1'
0(
0)
0*
1+
#61
0!
1"
1#
0$
0%
0&
1'
0(
0)
0*
1+
#62
0!
1"
1#
0$
0%
0&
1'
0(
0)
0*
1+
#63
0!
1"
1#
0$
0%
0&
1'
0(
0)
0*
1+
#64
0!
1"
1#
0$
0%
0&
1'
0(
0)
0*
1+
#65
0!
1"
1#
0$
0%
0&
1'
0(
0)
0*
1+
#66
0!
1"
1#
0$
0%
0&
1'
0(
0)
0*
1+
#67
0!
1"
1#
0$
0%
0&
1'
0(
0)
0*
1+
#68
0!
1"
1#
0$
0%
0&
1'
0(
0)
0*
1+
#69
0!
1"
1#
0$
0%
0&
1'
0(
0)
0*
1+
#70
0!
1"
1#
0$
0%
0&
1'
0(
0)
0*
1+
#71
0!
1"
1#
0$
0%
0&
1'
0(
0)
0*
1+
#72
0!
1"
1#
0$
0%
0&
1'
0(
0)
0*
1+
#73
0!
1"
1#
0$
0%
0&
1'
0(
0)
0*
1+
#74
0!
1"
1#
0$
0%
0&
1'
0(
0)
0*
1+
#75
0!
1"
1#
0$
0%
0&
1'
0(
0)
0*
1+
#76
0!
1"
1#
0$
0%
0&
1'
0(
0)
0*
1+
#77
0!
1"
1#
0$
0%
0&
1'
0(
0)
0*
1+
#78
0!
1"
1#
0$
0%
0&
1'
0(
0)
0*
1+
#79
0!
1"
1#
0$
0%
0&
1'
0(
0)
0*
1+
#80
0!
1"
1#
0$
0%
0&
1'
0(
0)
0*
1+
#81
0!
1"
1#
0$
0%
0&
1'
0(
0)
0*
1+
#82
0!
1"
1#
0$
0%
0&
1'
0(
0)
0*
1+
#83
0!
1"
1#
0$
0%
0&
1'
0(
0)
0*
1+
#84
0!
1"
1#
0$
0%
0&
1'
0(
0)
0*
1+
#85
0!
1"
1#
1$
1%
0&
1'
0(
1)
1*
0+
#86
0!
1"
1#
1$
1%
0&
1'
0(
1)
1*
0+
#87
0!
1"
1#
1$
1%
0&
1'
0(
1)
1*
0+
#88
0!
1"
1#
1$
1%
0&
1'
0(
1)
1*
0+
#89
0!
1"
1#
1$
1%
0&
1'
0(
1)
1*
0+
#90
0!
1"
1#
1$
1%
0&
1'
0(
1)
1*
0+
#91
0!
1"
1#
1$
1%
0&
1'
0(
1)
1*
0+
#92
0!
1"
1#
1$
1%
0&
1'
0(
1)
1*
0+
#93
0!
1"
1#
1$
1%
0&
1'
0(
1)
1*
0+
#94
0!
1"
1#
1$
1%
0&
1'
0(
1)
1*
0+
#95
1!
0"
0#
0$
1%
1&
0'
0(
0)
1*
0+
#96
1!
0"
0#
0$
1%
1&
0'
0(
0)
1*
0+
#97
1!
0"
0#
0$
1%
1&
0'
0(
0)
1*
0+
#98
1!
0"
0#
0$
1%
1&
0'
0(
0)
1*
0+
#99
1!
0"
0#
0$
1%
1&
0'
0(
0)
1*
0+
#100
1!
0"
0#
0$
1%
1&
0'
0(
0)
1*
0+
#101
1!
0"
0#
0$
1%
1&
0'
0(
0)
1*
0+
#102
1!
0"
0#
0$
1%
1&
0'
0(
0)
1*
0+
#103
1!
0"
0#
0$
1%
1&
0'
0(
0)
1*
0+
#104
1!
0"
0#
0$
1%
1&
0'
0(
0)
1*
0+
