bin/trig_DFF.vcd
$date
  01:43:33 22/10/2017
$end
$version
  Alexander Lapin Petri Nets Logic Simulator.
$end
$comment
  Any comment text.
$end
$timescale 1ns $end
$scope module logic $end
$var wire 1 ! i1.net0 $end
$var wire 1 " i1.net1 $end
$var wire 1 # i1.net2 $end
$var wire 1 $ i1.net3 $end
$var wire 1 % i1.net4 $end
$var wire 1 & i1.net5 $end
$var wire 1 ' i1.net6 $end
$var wire 1 ( in_C $end
$var wire 1 ) in_D $end
$var wire 1 * out_Q $end
$var wire 1 + out_nQ $end
$upscope $end
$enddefinitions $end
$dumpvars
x!
x"
x#
x$
x%
x&
x'
x(
x)
x*
x+
$end
#0
1!
0"
1#
1$
0%
0&
0'
0(
0)
x*
x+
#5
1!
1"
1#
1$
0%
1&
0'
1(
0)
x*
x+
#6
1!
1"
1#
1$
0%
1&
0'
1(
0)
0*
x+
#7
1!
1"
1#
1$
0%
1&
0'
1(
0)
0*
1+
#10
1!
0"
1#
1$
0%
0&
0'
0(
0)
0*
1+
#13
0!
1"
0#
0$
1%
0&
0'
0(
1)
0*
1+
#15
0!
1"
1#
0$
1%
0&
1'
1(
1)
0*
1+
#16
0!
1"
1#
0$
1%
0&
1'
1(
1)
0*
0+
#17
0!
1"
1#
0$
1%
0&
1'
1(
1)
1*
0+
#20
0!
1"
0#
0$
1%
0&
0'
0(
1)
1*
0+
#25
0!
1"
1#
0$
1%
0&
1'
1(
1)
1*
0+
#26
1!
1"
1#
0$
1%
0&
1'
1(
0)
1*
0+
#30
1!
0"
1#
1$
0%
0&
0'
0(
0)
1*
0+
#35
1!
1"
1#
1$
0%
1&
0'
1(
0)
1*
0+
#36
1!
1"
1#
1$
0%
1&
0'
1(
0)
0*
0+
#37
1!
1"
1#
1$
0%
1&
0'
1(
0)
0*
1+
#39
0!
1"
1#
1$
0%
1&
0'
1(
1)
0*
1+
#40
0!
1"
0#
0$
1%
0&
0'
0(
1)
0*
1+
#45
0!
1"
1#
0$
1%
0&
1'
1(
1)
0*
1+
#46
0!
1"
1#
0$
1%
0&
1'
1(
1)
0*
0+
#47
0!
1"
1#
0$
1%
0&
1'
1(
1)
1*
0+
#50
0!
1"
0#
0$
1%
0&
0'
0(
1)
1*
0+
#52
1!
0"
1#
1$
0%
0&
0'
0(
0)
1*
0+
#55
1!
1"
1#
1$
0%
1&
0'
1(
0)
1*
0+
#56
1!
1"
1#
1$
0%
1&
0'
1(
0)
0*
0+
#57
1!
1"
1#
1$
0%
1&
0'
1(
0)
0*
1+
#60
1!
0"
1#
1$
0%
0&
0'
0(
0)
0*
1+
#65
0!
1"
1#
1$
0%
1&
0'
1(
1)
0*
1+
#70
0!
1"
0#
0$
1%
0&
0'
0(
1)
0*
1+
#75
0!
1"
1#
0$
1%
0&
1'
1(
1)
0*
1+
#76
0!
1"
1#
0$
1%
0&
1'
1(
1)
0*
0+
#77
0!
1"
1#
0$
1%
0&
1'
1(
1)
1*
0+
#78
1!
1"
1#
0$
1%
0&
1'
1(
0)
1*
0+
#80
1!
0"
1#
1$
0%
0&
0'
0(
0)
1*
0+
#85
1!
1"
1#
1$
0%
1&
0'
1(
0)
1*
0+
#86
1!
1"
1#
1$
0%
1&
0'
1(
0)
0*
0+
#87
1!
1"
1#
1$
0%
1&
0'
1(
0)
0*
1+
#90
1!
0"
1#
1$
0%
0&
0'
0(
0)
0*
1+
#91
0!
1"
0#
0$
1%
0&
0'
0(
1)
0*
1+
#95
0!
1"
1#
0$
1%
0&
1'
1(
1)
0*
1+
#96
0!
1"
1#
0$
1%
0&
1'
1(
1)
0*
0+
#97
0!
1"
1#
0$
1%
0&
1'
1(
1)
1*
0+
