bin/trig_DFF_ec.vcd
$date
  23:09:33 04/12/2016
$end
$version
  Alexander Lapin Petri Nets Logic Simulator.
$end
$comment
  Any comment text.
$end
$timescale 1ns $end
$scope module logic $end
$var wire 1 ! C $end
$var wire 1 " EC $end
$var wire 1 # D $end
$var wire 1 $ dff1_net1 $end
$var wire 1 % dff1_Cdff $end
$var wire 1 & dff1_net0 $end
$var wire 1 ' dff1_net2 $end
$var wire 1 ( dff1_net3 $end
$var wire 1 ) dff1_net4 $end
$var wire 1 * Q $end
$var wire 1 + nQ $end
$var wire 1 , dff1_net5 $end
$var wire 1 - dff1_net6 $end
$upscope $end
$enddefinitions $end
$dumpvars
x!
x"
x#
x$
x%
x&
x'
x(
x)
x*
x+
x,
x-
$end
#0
0!
0"
0#
0$
0%
1&
1'
1(
0)
x*
x+
0,
0-
#1
1!
0"
0#
1$
1%
1&
1'
1(
0)
0*
1+
1,
0-
#2
1!
1"
0#
1$
1%
1&
1'
1(
0)
0*
1+
1,
0-
#3
0!
1"
0#
1$
1%
1&
1'
1(
0)
0*
1+
1,
0-
#4
1!
1"
0#
1$
1%
1&
1'
1(
0)
0*
1+
1,
0-
#5
0!
1"
0#
1$
1%
1&
1'
1(
0)
0*
1+
1,
0-
#6
1!
1"
1#
1$
1%
0&
1'
1(
0)
0*
1+
1,
0-
#7
0!
1"
1#
1$
1%
0&
1'
1(
0)
0*
1+
1,
0-
#8
1!
0"
1#
1$
1%
0&
1'
1(
0)
0*
1+
1,
0-
#9
0!
0"
1#
1$
0%
0&
0'
0(
1)
0*
1+
0,
0-
#10
1!
0"
1#
1$
1%
0&
1'
0(
1)
1*
0+
0,
1-
#11
1!
0"
1#
1$
1%
0&
1'
0(
1)
1*
0+
0,
1-
#12
0!
0"
1#
1$
0%
0&
0'
0(
1)
1*
0+
0,
0-
#13
1!
0"
1#
1$
1%
0&
1'
0(
1)
1*
0+
0,
1-
#14
0!
0"
1#
1$
0%
0&
0'
0(
1)
1*
0+
0,
0-
#15
0!
0"
0#
0$
0%
1&
1'
1(
0)
1*
0+
0,
0-
#16
1!
0"
0#
1$
1%
1&
1'
1(
0)
0*
1+
1,
0-
#17
0!
0"
0#
0$
0%
1&
1'
1(
0)
0*
1+
0,
0-
