bin/trig_RS.vcd
$date
  12:55:30 22/09/2016
$end
$version
  Alexander Lapin Petri Nets Logic Simulator.
$end
$comment
  Any comment text.
$end
$timescale 1ns $end
$scope module logic $end
$var wire 1 ! NQ $end
$var wire 1 " S $end
$var wire 1 # Q $end
$var wire 1 $ R $end
$upscope $end
$enddefinitions $end
$dumpvars
x!
x"
x#
x$
$end
#0
x!
0"
x#
0$
#1
x!
0"
x#
0$
#2
x!
0"
x#
0$
#3
x!
0"
x#
0$
#4
x!
0"
x#
0$
#5
0!
1"
1#
0$
#6
0!
1"
1#
0$
#7
0!
0"
1#
0$
#8
0!
0"
1#
0$
#9
0!
0"
1#
0$
#10
0!
0"
1#
0$
#11
0!
0"
1#
0$
#12
0!
0"
1#
0$
#13
0!
0"
1#
0$
#14
0!
0"
1#
0$
#15
0!
0"
1#
0$
#16
0!
0"
1#
0$
#17
0!
0"
1#
0$
#18
0!
0"
1#
0$
#19
0!
0"
1#
0$
#20
1!
0"
0#
1$
#21
1!
0"
0#
1$
#22
1!
0"
0#
0$
#23
1!
0"
0#
0$
#24
1!
0"
0#
0$
#25
1!
0"
0#
0$
#26
1!
0"
0#
0$
#27
1!
0"
0#
0$
#28
1!
0"
0#
0$
#29
1!
0"
0#
0$
#30
1!
0"
0#
0$
#31
1!
0"
0#
0$
